vertex_program black_and_white_vs hlsl
{
    source black_and_white_vs.hlsl
	target vs_2_0
    entry_point main

    default_params
    {
        param_named_auto worldViewProj worldviewproj_matrix
    }
}

fragment_program black_and_white_ps hlsl
{
    source black_and_white_ps.hlsl
    target ps_2_0
    entry_point main
	
    default_params
    {
    }
}

material Compositor/Material/BlackAndWhite
{
	technique
	{
		pass
		{
			vertex_program_ref black_and_white_vs
			{
			}
				
			fragment_program_ref black_and_white_ps
			{
			}
			
			texture_unit
			{
				content_type compositor Compositor/BlackAndWhite rt_full
			}
		}
	}
}